{
    "attributes": {
        "description": "",
        "kibanaSavedObjectMeta": {
            "searchSourceJSON": "{}"
        },
        "title": "onion_by_organization_help",
        "uiStateJSON": "{}",
        "version": 1,
        "visState": "{\"title\":\"onion_by_organization_help\",\"type\":\"markdown\",\"params\":{\"fontSize\":12,\"markdown\":\"This panel shows the **evolution of the community structure split by organization** based on **onion analysis**.\\n\\n* **Core**: those contributing **80% of the activity**.\\n* **Regular**: those contributing the next **15% of the activity**.\\n* **Casual**: those contributing  the **last 5% of the activity**\\n\\n[See complete panel documentation](https://bitergia.gitlab.io/panel-collections/open_source_program_office/community-structure-by-organization.html)\"},\"aggs\":[]}"
    },
    "id": "8ea07860-3140-11e9-b68b-31a1aa44b23a",
    "type": "visualization",
    "updated_at": "2019-02-18T17:10:52.789Z",
    "version": 2
}